my-vignette • kperm
…
#w = convexhull.xy(ovarian[["x"]], ovarian[["y"]])

# define pp_obj
# pp_obj = ppp(ovarian[["x"]], ovarian[["y"]], window = w, marks = ovarian[[marksvar]])

pp_obj <- sim_data

df_back <- as.data.frame(pp_obj) %>%
  as_tibble()

df_back
#> # A tibble: 199 × 3
#>         x      y marks     
#>     <dbl>  <dbl> <fct>     
#>  1 0.435  0.779  background
#>  2 0.324  0.230  background
#>  3 0.861  0.902  background
#>  4 0.0842 0.752  background
#>  5 0.930  0.410  background
#>  6 0.200  0.725  immune    
#>  7 0.625  0.814  background
#>  8 0.275  0.0477 background
#>  9 0.180  0.0191 background
#> 10 0.194  0.0192 immune    
#> # ℹ 189 more rows
…
Expectation

kamp_expec = kamp_expectation(ppp_obj = pp_obj,
                            rvec = rvalues,
                            markvar = marksvar,
                            thin_pct = 0.75) %>% 
  mutate(og_fundiff = k - theo_csr,
         method = "kamp") %>%
  drop_na()

kamp_expec
#> # A tibble: 35 × 7
#>         r       k theo_csr kamp_csr kamp_fundiff og_fundiff method
#>     <dbl>   <dbl>    <dbl>    <dbl>        <dbl>      <dbl> <chr> 
#>  1 0      0        0        0          0           0        kamp  
#>  2 0.0204 0.00152  0.00131  0.00171   -0.000191    0.000207 kamp  
#>  3 0.0408 0.00563  0.00523  0.00524    0.000391    0.000400 kamp  
#>  4 0.0612 0.00989  0.0118   0.0107    -0.000843   -0.00189  kamp  
#>  5 0.0816 0.0192   0.0209   0.0191     0.0000123  -0.00179  kamp  
#>  6 0.102  0.0320   0.0327   0.0313     0.000739   -0.000678 kamp  
#>  7 0.122  0.0464   0.0471   0.0462     0.000197   -0.000678 kamp  
#>  8 0.143  0.0630   0.0641   0.0626     0.000476   -0.00109  kamp  
#>  9 0.163  0.0832   0.0837   0.0811     0.00216    -0.000510 kamp  
#> 10 0.184  0.110    0.106    0.103      0.00625     0.00362  kamp  
#> # ℹ 25 more rows

kamp_expec_mat = kamp_expectation_mat(ppp_obj = pp_obj,
                                    rvec = rvalues,
                                    markvar = marksvar) %>% 
  drop_na()

kamp_expec_mat
#> # A tibble: 50 × 5
#>         r       k theo_csr kamp_csr kamp_fundiff
#>     <dbl>   <dbl>    <dbl>    <dbl>        <dbl>
#>  1 0      0        0        0          0        
#>  2 0.0204 0.00152  0.00131  0.00171   -0.000191 
#>  3 0.0408 0.00563  0.00523  0.00524    0.000391 
#>  4 0.0612 0.00989  0.0118   0.0107    -0.000843 
#>  5 0.0816 0.0192   0.0209   0.0191     0.0000123
#>  6 0.102  0.0320   0.0327   0.0313     0.000739 
#>  7 0.122  0.0464   0.0471   0.0462     0.000197 
#>  8 0.143  0.0630   0.0641   0.0626     0.000476 
#>  9 0.163  0.0832   0.0837   0.0811     0.00216  
#> 10 0.184  0.110    0.106    0.103      0.00625  
#> # ℹ 40 more rows

Variance

kamp_var = kamp_variance(ppp_obj = pp_obj,
                         rvec = rvalues,
                         markvar = marksvar) %>% 
  drop_na()

kamp_var
#> # A tibble: 49 × 7
#>         r       k theo_csr kamp_csr         var        z pvalue
#>     <dbl>   <dbl>    <dbl>    <dbl>       <dbl>    <dbl>  <dbl>
#>  1 0.0204 0.00152  0.00131  0.00171 0.000000744 -0.221    0.588
#>  2 0.0408 0.00563  0.00523  0.00524 0.00000229   0.258    0.398
#>  3 0.0612 0.00989  0.0118   0.0107  0.00000435  -0.404    0.657
#>  4 0.0816 0.0192   0.0209   0.0191  0.00000804   0.00432  0.498
#>  5 0.102  0.0320   0.0327   0.0313  0.0000152    0.189    0.425
#>  6 0.122  0.0464   0.0471   0.0462  0.0000230    0.0411   0.484
#>  7 0.143  0.0630   0.0641   0.0626  0.0000358    0.0795   0.468
#>  8 0.163  0.0832   0.0837   0.0811  0.0000513    0.302    0.381
#>  9 0.184  0.110    0.106    0.103   0.0000709    0.742    0.229
#> 10 0.204  0.135    0.131    0.129   0.000101     0.577    0.282
#> # ℹ 39 more rows
…
marksvar = "immune"
rvalues = seq(0, 1, length.out = 50)

pp_obj <- sim_data_biv

df_back <- as.data.frame(pp_obj) %>%
  as_tibble()

df_back
#> # A tibble: 180 × 3
#>        x     y marks     
#>    <dbl> <dbl> <fct>     
#>  1 4.07  0.690 background
#>  2 6.84  8.71  immune2   
#>  3 0.565 8.65  immune2   
#>  4 5.13  1.18  immune2   
#>  5 1.13  9.50  background
#>  6 1.15  9.23  immune2   
#>  7 8.35  6.15  background
#>  8 5.15  1.42  background
#>  9 8.37  4.02  immune1   
#> 10 9.39  4.80  immune1   
#> # ℹ 170 more rows
…
Expectation

kamp_expec_biv = kamp_expectation_biv(ppp_obj = pp_obj,
                            rvec = rvalues,
                            #markvar = marksvar,
                            thin_pct = 0.5) %>% 
  drop_na()

kamp_expec_biv
#> # A tibble: 50 × 5
#>         r     k theo_csr kamp_csr kamp_fundiff
#>     <dbl> <dbl>    <dbl>    <dbl>        <dbl>
#>  1 0      0      0         0             0    
#>  2 0.0204 0      0.00131   0             0    
#>  3 0.0408 0      0.00523   0             0    
#>  4 0.0612 0      0.0118    0             0    
#>  5 0.0816 0      0.0209    0             0    
#>  6 0.102  0.554  0.0327    0.0258        0.529
#>  7 0.122  0.554  0.0471    0.0258        0.529
#>  8 0.143  0.554  0.0641    0.0258        0.529
#>  9 0.163  0.554  0.0837    0.0258        0.529
#> 10 0.184  0.554  0.106     0.0780        0.477
#> # ℹ 40 more rows

kamp_expec_biv_mat = kamp_expectation_biv_mat(ppp_obj = pp_obj,
                                    rvec = rvalues) %>% 
  drop_na()

kamp_expec_biv_mat
#> # A tibble: 50 × 5
#>         r     k theo_csr kamp_csr kamp_fundiff
#>     <dbl> <dbl>    <dbl>    <dbl>        <dbl>
#>  1 0      0      0        0            0      
#>  2 0.0204 0      0.00131  0.00622     -0.00622
#>  3 0.0408 0      0.00523  0.00622     -0.00622
#>  4 0.0612 0      0.0118   0.00622     -0.00622
#>  5 0.0816 0      0.0209   0.0188      -0.0188 
#>  6 0.102  0.125  0.0327   0.0250       0.0996 
#>  7 0.122  0.125  0.0471   0.0439       0.0807 
#>  8 0.143  0.375  0.0641   0.0755       0.300  
#>  9 0.163  0.627  0.0837   0.113        0.513  
#> 10 0.184  0.753  0.106    0.164        0.589  
#> # ℹ 40 more rows

Variance

kamp_biv_var = kamp_variance_biv(ppp_obj = pp_obj,
                         rvec = rvalues) %>% 
  drop_na()

kamp_biv_var
#> # A tibble: 49 × 7
#>         r     k theo_csr kamp_csr      var      z      pvalue
#>     <dbl> <dbl>    <dbl>    <dbl>    <dbl>  <dbl>       <dbl>
#>  1 0.0204 0      0.00131  0.00622 0.000731 -0.230 0.591      
#>  2 0.0408 0      0.00523  0.00622 0.000731 -0.230 0.591      
#>  3 0.0612 0      0.0118   0.00622 0.000731 -0.230 0.591      
#>  4 0.0816 0      0.0209   0.0188  0.00220  -0.400 0.655      
#>  5 0.102  0.125  0.0327   0.0250  0.00293   1.84  0.0330     
#>  6 0.122  0.125  0.0471   0.0439  0.00513   1.13  0.130      
#>  7 0.143  0.375  0.0641   0.0755  0.00889   3.18  0.000742   
#>  8 0.163  0.627  0.0837   0.113   0.0136    4.40  0.00000538 
#>  9 0.184  0.753  0.106    0.164   0.0199    4.18  0.0000148  
#> 10 0.204  0.880  0.131    0.177   0.0217    4.77  0.000000916
#> # ℹ 39 more rows
…
